STT (index Wall)	Wall (1 -> 6) _ count	Position (0 -> 9) _ count (add 1) (VD: 0_10 => 0 to 9)	Star Process (1: increase length main; 3: add process)	Star Ball (2: add ball)	Position Bar (0 -> 9) -1: null
1	4_2/1_2/2_2	1_2/4_2/7_2	1_0	2_3	-1
2	4_2/1_2/2_2	1_2/4_2/7_2	1_0	2_0	-1
3	4_2/1_2/2_2	1_2/4_2/7_2	1_0	2_0	-1
4	4_2/1_2/2_2	1_2/4_2/7_2	1_0	2_0	-1
5	4_2/1_2/2_2	1_2/4_2/7_2	1_0	2_0	-1
6	4_2/1_2/2_2	1_2/4_2/7_2	1_0	2_0	-1